*** Life<ConwayCell> 21x23 ***

Generation = 0, Population = 15.
..........*............
.....*.................
................*......
.......................
.......................
..*...........*........
.......................
..................*....
.*.....................
.......................
.......................
.......*.....*.........
.......................
......................*
.............*.........
.......................
.......................
.......................
...............*.......
..........*............
*................*.....

*** Life<ConwayCell> 10x27 ***

Generation = 0, Population = 18.
...........................
........*.............*....
.*...*.....................
...........................
.....**....................
.......*...................
........*...*.........**...
..................*.......*
...*...............*.......
...................**....*.

Generation = 7, Population = 0.
...........................
...........................
...........................
...........................
...........................
...........................
...........................
...........................
...........................
...........................

Generation = 14, Population = 0.
...........................
...........................
...........................
...........................
...........................
...........................
...........................
...........................
...........................
...........................

Generation = 21, Population = 0.
...........................
...........................
...........................
...........................
...........................
...........................
...........................
...........................
...........................
...........................

*** Life<ConwayCell> 38x16 ***

Generation = 0, Population = 1.
................
................
................
................
................
................
................
................
................
................
................
................
................
................
................
................
................
................
................
................
................
................
................
................
................
................
................
................
........*.......
................
................
................
................
................
................
................
................
................

Generation = 18, Population = 0.
................
................
................
................
................
................
................
................
................
................
................
................
................
................
................
................
................
................
................
................
................
................
................
................
................
................
................
................
................
................
................
................
................
................
................
................
................
................

Generation = 36, Population = 0.
................
................
................
................
................
................
................
................
................
................
................
................
................
................
................
................
................
................
................
................
................
................
................
................
................
................
................
................
................
................
................
................
................
................
................
................
................
................

*** Life<ConwayCell> 4x38 ***

Generation = 0, Population = 24.
.*......*...*.........................
....*.*..**..........***.....*.*......
.....**...*.........*.*.....*.........
*...........*.*......*..*.....*.......

Generation = 5, Population = 7.
......*...............................
.....*.................*..............
.....*...............**...............
......*...............................

Generation = 10, Population = 4.
......................................
.....**...............................
.....**...............................
......................................

Generation = 15, Population = 4.
......................................
.....**...............................
.....**...............................
......................................

Generation = 20, Population = 4.
......................................
.....**...............................
.....**...............................
......................................

Generation = 25, Population = 4.
......................................
.....**...............................
.....**...............................
......................................

Generation = 30, Population = 4.
......................................
.....**...............................
.....**...............................
......................................

Generation = 35, Population = 4.
......................................
.....**...............................
.....**...............................
......................................

Generation = 40, Population = 4.
......................................
.....**...............................
.....**...............................
......................................

*** Life<ConwayCell> 26x12 ***

Generation = 0, Population = 14.
............
..........*.
............
............
............
............
.......*..*.
...*........
*.......*...
............
........*...
...........*
............
.......*....
............
............
............
............
............
.*..*.......
............
..........**
.....*......
............
............
............

Generation = 1, Population = 0.
............
............
............
............
............
............
............
............
............
............
............
............
............
............
............
............
............
............
............
............
............
............
............
............
............
............

Generation = 2, Population = 0.
............
............
............
............
............
............
............
............
............
............
............
............
............
............
............
............
............
............
............
............
............
............
............
............
............
............

Generation = 3, Population = 0.
............
............
............
............
............
............
............
............
............
............
............
............
............
............
............
............
............
............
............
............
............
............
............
............
............
............

Generation = 4, Population = 0.
............
............
............
............
............
............
............
............
............
............
............
............
............
............
............
............
............
............
............
............
............
............
............
............
............
............

Generation = 5, Population = 0.
............
............
............
............
............
............
............
............
............
............
............
............
............
............
............
............
............
............
............
............
............
............
............
............
............
............

Generation = 6, Population = 0.
............
............
............
............
............
............
............
............
............
............
............
............
............
............
............
............
............
............
............
............
............
............
............
............
............
............

Generation = 7, Population = 0.
............
............
............
............
............
............
............
............
............
............
............
............
............
............
............
............
............
............
............
............
............
............
............
............
............
............

Generation = 8, Population = 0.
............
............
............
............
............
............
............
............
............
............
............
............
............
............
............
............
............
............
............
............
............
............
............
............
............
............

Generation = 9, Population = 0.
............
............
............
............
............
............
............
............
............
............
............
............
............
............
............
............
............
............
............
............
............
............
............
............
............
............

Generation = 10, Population = 0.
............
............
............
............
............
............
............
............
............
............
............
............
............
............
............
............
............
............
............
............
............
............
............
............
............
............

Generation = 11, Population = 0.
............
............
............
............
............
............
............
............
............
............
............
............
............
............
............
............
............
............
............
............
............
............
............
............
............
............

Generation = 12, Population = 0.
............
............
............
............
............
............
............
............
............
............
............
............
............
............
............
............
............
............
............
............
............
............
............
............
............
............

Generation = 13, Population = 0.
............
............
............
............
............
............
............
............
............
............
............
............
............
............
............
............
............
............
............
............
............
............
............
............
............
............

Generation = 14, Population = 0.
............
............
............
............
............
............
............
............
............
............
............
............
............
............
............
............
............
............
............
............
............
............
............
............
............
............

Generation = 15, Population = 0.
............
............
............
............
............
............
............
............
............
............
............
............
............
............
............
............
............
............
............
............
............
............
............
............
............
............

Generation = 16, Population = 0.
............
............
............
............
............
............
............
............
............
............
............
............
............
............
............
............
............
............
............
............
............
............
............
............
............
............

Generation = 17, Population = 0.
............
............
............
............
............
............
............
............
............
............
............
............
............
............
............
............
............
............
............
............
............
............
............
............
............
............

Generation = 18, Population = 0.
............
............
............
............
............
............
............
............
............
............
............
............
............
............
............
............
............
............
............
............
............
............
............
............
............
............

Generation = 19, Population = 0.
............
............
............
............
............
............
............
............
............
............
............
............
............
............
............
............
............
............
............
............
............
............
............
............
............
............

Generation = 20, Population = 0.
............
............
............
............
............
............
............
............
............
............
............
............
............
............
............
............
............
............
............
............
............
............
............
............
............
............

Generation = 21, Population = 0.
............
............
............
............
............
............
............
............
............
............
............
............
............
............
............
............
............
............
............
............
............
............
............
............
............
............

Generation = 22, Population = 0.
............
............
............
............
............
............
............
............
............
............
............
............
............
............
............
............
............
............
............
............
............
............
............
............
............
............

Generation = 23, Population = 0.
............
............
............
............
............
............
............
............
............
............
............
............
............
............
............
............
............
............
............
............
............
............
............
............
............
............

Generation = 24, Population = 0.
............
............
............
............
............
............
............
............
............
............
............
............
............
............
............
............
............
............
............
............
............
............
............
............
............
............

Generation = 25, Population = 0.
............
............
............
............
............
............
............
............
............
............
............
............
............
............
............
............
............
............
............
............
............
............
............
............
............
............

Generation = 26, Population = 0.
............
............
............
............
............
............
............
............
............
............
............
............
............
............
............
............
............
............
............
............
............
............
............
............
............
............

Generation = 27, Population = 0.
............
............
............
............
............
............
............
............
............
............
............
............
............
............
............
............
............
............
............
............
............
............
............
............
............
............

Generation = 28, Population = 0.
............
............
............
............
............
............
............
............
............
............
............
............
............
............
............
............
............
............
............
............
............
............
............
............
............
............

Generation = 29, Population = 0.
............
............
............
............
............
............
............
............
............
............
............
............
............
............
............
............
............
............
............
............
............
............
............
............
............
............

Generation = 30, Population = 0.
............
............
............
............
............
............
............
............
............
............
............
............
............
............
............
............
............
............
............
............
............
............
............
............
............
............

Generation = 31, Population = 0.
............
............
............
............
............
............
............
............
............
............
............
............
............
............
............
............
............
............
............
............
............
............
............
............
............
............

Generation = 32, Population = 0.
............
............
............
............
............
............
............
............
............
............
............
............
............
............
............
............
............
............
............
............
............
............
............
............
............
............

Generation = 33, Population = 0.
............
............
............
............
............
............
............
............
............
............
............
............
............
............
............
............
............
............
............
............
............
............
............
............
............
............

Generation = 34, Population = 0.
............
............
............
............
............
............
............
............
............
............
............
............
............
............
............
............
............
............
............
............
............
............
............
............
............
............

Generation = 35, Population = 0.
............
............
............
............
............
............
............
............
............
............
............
............
............
............
............
............
............
............
............
............
............
............
............
............
............
............

Generation = 36, Population = 0.
............
............
............
............
............
............
............
............
............
............
............
............
............
............
............
............
............
............
............
............
............
............
............
............
............
............

Generation = 37, Population = 0.
............
............
............
............
............
............
............
............
............
............
............
............
............
............
............
............
............
............
............
............
............
............
............
............
............
............

Generation = 38, Population = 0.
............
............
............
............
............
............
............
............
............
............
............
............
............
............
............
............
............
............
............
............
............
............
............
............
............
............

Generation = 39, Population = 0.
............
............
............
............
............
............
............
............
............
............
............
............
............
............
............
............
............
............
............
............
............
............
............
............
............
............

Generation = 40, Population = 0.
............
............
............
............
............
............
............
............
............
............
............
............
............
............
............
............
............
............
............
............
............
............
............
............
............
............

Generation = 41, Population = 0.
............
............
............
............
............
............
............
............
............
............
............
............
............
............
............
............
............
............
............
............
............
............
............
............
............
............

Generation = 42, Population = 0.
............
............
............
............
............
............
............
............
............
............
............
............
............
............
............
............
............
............
............
............
............
............
............
............
............
............

Generation = 43, Population = 0.
............
............
............
............
............
............
............
............
............
............
............
............
............
............
............
............
............
............
............
............
............
............
............
............
............
............

Generation = 44, Population = 0.
............
............
............
............
............
............
............
............
............
............
............
............
............
............
............
............
............
............
............
............
............
............
............
............
............
............

Generation = 45, Population = 0.
............
............
............
............
............
............
............
............
............
............
............
............
............
............
............
............
............
............
............
............
............
............
............
............
............
............

Generation = 46, Population = 0.
............
............
............
............
............
............
............
............
............
............
............
............
............
............
............
............
............
............
............
............
............
............
............
............
............
............

Generation = 47, Population = 0.
............
............
............
............
............
............
............
............
............
............
............
............
............
............
............
............
............
............
............
............
............
............
............
............
............
............

Generation = 48, Population = 0.
............
............
............
............
............
............
............
............
............
............
............
............
............
............
............
............
............
............
............
............
............
............
............
............
............
............

Generation = 49, Population = 0.
............
............
............
............
............
............
............
............
............
............
............
............
............
............
............
............
............
............
............
............
............
............
............
............
............
............

Generation = 50, Population = 0.
............
............
............
............
............
............
............
............
............
............
............
............
............
............
............
............
............
............
............
............
............
............
............
............
............
............

*** Life<ConwayCell> 7x20 ***

Generation = 0, Population = 2.
..........*.........
....................
....................
....................
....................
.*..................
....................

Generation = 14, Population = 0.
....................
....................
....................
....................
....................
....................
....................

Generation = 28, Population = 0.
....................
....................
....................
....................
....................
....................
....................

*** Life<ConwayCell> 17x9 ***

Generation = 0, Population = 27.
....*....
.*.......
....*....
....*....
.*.......
.........
..*..*.*.
...*..*..
*..*..**.
..*......
.*.......
.........
...*.....
*........
.*...**.*
*...**...
..**.....

Generation = 2, Population = 19.
.........
.........
.........
.........
.........
.........
...***...
..*.**.*.
.....**..
.***.....
.........
.........
.........
.....*...
**....*..
**....*..
.........

Generation = 4, Population = 11.
.........
.........
.........
.........
.........
....**...
....**...
....*....
.........
.**......
.........
.........
.........
.........
**.......
**.......
.........

Generation = 6, Population = 7.
.........
.........
.........
.........
.........
....*....
...*.....
....*....
.........
.........
.........
.........
.........
.........
**.......
**.......
.........

Generation = 8, Population = 4.
.........
.........
.........
.........
.........
.........
.........
.........
.........
.........
.........
.........
.........
.........
**.......
**.......
.........

Generation = 10, Population = 4.
.........
.........
.........
.........
.........
.........
.........
.........
.........
.........
.........
.........
.........
.........
**.......
**.......
.........

Generation = 12, Population = 4.
.........
.........
.........
.........
.........
.........
.........
.........
.........
.........
.........
.........
.........
.........
**.......
**.......
.........

Generation = 14, Population = 4.
.........
.........
.........
.........
.........
.........
.........
.........
.........
.........
.........
.........
.........
.........
**.......
**.......
.........

Generation = 16, Population = 4.
.........
.........
.........
.........
.........
.........
.........
.........
.........
.........
.........
.........
.........
.........
**.......
**.......
.........

Generation = 18, Population = 4.
.........
.........
.........
.........
.........
.........
.........
.........
.........
.........
.........
.........
.........
.........
**.......
**.......
.........

Generation = 20, Population = 4.
.........
.........
.........
.........
.........
.........
.........
.........
.........
.........
.........
.........
.........
.........
**.......
**.......
.........

Generation = 22, Population = 4.
.........
.........
.........
.........
.........
.........
.........
.........
.........
.........
.........
.........
.........
.........
**.......
**.......
.........

Generation = 24, Population = 4.
.........
.........
.........
.........
.........
.........
.........
.........
.........
.........
.........
.........
.........
.........
**.......
**.......
.........

Generation = 26, Population = 4.
.........
.........
.........
.........
.........
.........
.........
.........
.........
.........
.........
.........
.........
.........
**.......
**.......
.........

Generation = 28, Population = 4.
.........
.........
.........
.........
.........
.........
.........
.........
.........
.........
.........
.........
.........
.........
**.......
**.......
.........

Generation = 30, Population = 4.
.........
.........
.........
.........
.........
.........
.........
.........
.........
.........
.........
.........
.........
.........
**.......
**.......
.........

Generation = 32, Population = 4.
.........
.........
.........
.........
.........
.........
.........
.........
.........
.........
.........
.........
.........
.........
**.......
**.......
.........

Generation = 34, Population = 4.
.........
.........
.........
.........
.........
.........
.........
.........
.........
.........
.........
.........
.........
.........
**.......
**.......
.........

Generation = 36, Population = 4.
.........
.........
.........
.........
.........
.........
.........
.........
.........
.........
.........
.........
.........
.........
**.......
**.......
.........

Generation = 38, Population = 4.
.........
.........
.........
.........
.........
.........
.........
.........
.........
.........
.........
.........
.........
.........
**.......
**.......
.........

*** Life<ConwayCell> 36x26 ***

Generation = 0, Population = 8.
............*.............
..........................
..........................
..........................
..........................
..........................
........................*.
.........................*
..........................
..........................
..........................
..*.......................
..........................
..........................
..........................
..........................
..........................
..........................
..............*...........
..........................
..........................
..........................
..........................
..........................
...*......................
..........................
.............*............
................*.........
..........................
..........................
..........................
..........................
..........................
..........................
..........................
..........................

Generation = 21, Population = 0.
..........................
..........................
..........................
..........................
..........................
..........................
..........................
..........................
..........................
..........................
..........................
..........................
..........................
..........................
..........................
..........................
..........................
..........................
..........................
..........................
..........................
..........................
..........................
..........................
..........................
..........................
..........................
..........................
..........................
..........................
..........................
..........................
..........................
..........................
..........................
..........................

*** Life<ConwayCell> 36x12 ***

Generation = 0, Population = 9.
............
.........*..
............
...*.*......
............
............
............
............
..*.........
............
............
............
............
............
.......*....
....*.......
............
............
............
............
............
............
............
......*.....
............
............
............
..*.........
............
............
............
............
............
...........*
............
............

Generation = 10, Population = 0.
............
............
............
............
............
............
............
............
............
............
............
............
............
............
............
............
............
............
............
............
............
............
............
............
............
............
............
............
............
............
............
............
............
............
............
............

Generation = 20, Population = 0.
............
............
............
............
............
............
............
............
............
............
............
............
............
............
............
............
............
............
............
............
............
............
............
............
............
............
............
............
............
............
............
............
............
............
............
............

Generation = 30, Population = 0.
............
............
............
............
............
............
............
............
............
............
............
............
............
............
............
............
............
............
............
............
............
............
............
............
............
............
............
............
............
............
............
............
............
............
............
............

Generation = 40, Population = 0.
............
............
............
............
............
............
............
............
............
............
............
............
............
............
............
............
............
............
............
............
............
............
............
............
............
............
............
............
............
............
............
............
............
............
............
............

*** Life<ConwayCell> 10x17 ***

Generation = 0, Population = 17.
..........*...*..
............*....
..*.........*....
.........*.......
....*...*........
............*....
..............*..
....*.*..........
....*....*..*.*..
..*..............

*** Life<ConwayCell> 21x2 ***

Generation = 0, Population = 14.
.*
..
..
..
..
*.
*.
*.
*.
**
..
*.
..
..
..
.*
..
.*
.*
**
.*

Generation = 19, Population = 0.
..
..
..
..
..
..
..
..
..
..
..
..
..
..
..
..
..
..
..
..
..

*** Life<ConwayCell> 30x26 ***

Generation = 0, Population = 6.
..........................
..........................
......................*...
..........................
..........................
..........................
..........................
..........................
..........................
..........................
........*.................
..........................
..........................
..........................
..........................
..........................
.*........................
..........................
..........................
..........................
..........................
.....................*....
........................*.
..........................
..........................
..........................
.................*........
..........................
..........................
..........................

Generation = 20, Population = 0.
..........................
..........................
..........................
..........................
..........................
..........................
..........................
..........................
..........................
..........................
..........................
..........................
..........................
..........................
..........................
..........................
..........................
..........................
..........................
..........................
..........................
..........................
..........................
..........................
..........................
..........................
..........................
..........................
..........................
..........................

*** Life<ConwayCell> 40x6 ***

Generation = 0, Population = 23.
......
..*...
*.....
....*.
......
...*..
......
.*.*..
......
......
...*..
...*.*
......
.*..*.
......
.....*
......
......
......
......
....*.
..*...
......
......
......
....*.
......
*.....
......
......
*..*..
......
......
*....*
......
......
......
*..*..
.....*
......

*** Life<ConwayCell> 14x6 ***

Generation = 0, Population = 6.
......
*.....
......
*.*...
......
......
......
.*..*.
......
......
......
......
.....*
......

Generation = 24, Population = 0.
......
......
......
......
......
......
......
......
......
......
......
......
......
......

Generation = 48, Population = 0.
......
......
......
......
......
......
......
......
......
......
......
......
......
......

*** Life<ConwayCell> 31x38 ***

Generation = 0, Population = 24.
......................................
..............................*.......
......................................
......................................
......................................
...........*.....*....................
.*.....*..............................
................................*....*
.................................*....
......................................
......................................
......................................
......................................
.......................*..............
......................................
..................................*...
................*.....................
......................................
..................................*...
................................*.....
..............*...*...................
...........*.......*........*.........
...........................*..........
......................................
.............................*........
......................................
.................................*....
......................................
.................*................*...
......................................
....................*.................

Generation = 15, Population = 0.
......................................
......................................
......................................
......................................
......................................
......................................
......................................
......................................
......................................
......................................
......................................
......................................
......................................
......................................
......................................
......................................
......................................
......................................
......................................
......................................
......................................
......................................
......................................
......................................
......................................
......................................
......................................
......................................
......................................
......................................
......................................

Generation = 30, Population = 0.
......................................
......................................
......................................
......................................
......................................
......................................
......................................
......................................
......................................
......................................
......................................
......................................
......................................
......................................
......................................
......................................
......................................
......................................
......................................
......................................
......................................
......................................
......................................
......................................
......................................
......................................
......................................
......................................
......................................
......................................
......................................

Generation = 45, Population = 0.
......................................
......................................
......................................
......................................
......................................
......................................
......................................
......................................
......................................
......................................
......................................
......................................
......................................
......................................
......................................
......................................
......................................
......................................
......................................
......................................
......................................
......................................
......................................
......................................
......................................
......................................
......................................
......................................
......................................
......................................
......................................

*** Life<ConwayCell> 16x26 ***

Generation = 0, Population = 25.
..*.............*.........
........*..*..............
............*.............
..........*...............
...*......................
..........................
....................*.....
.*........................
.....*...........***......
..........................
...*......*...............
.*........*.......*.......
..........................
.......*....**......*.....
.......*...............*..
....*.....................

Generation = 25, Population = 6.
..........................
..........................
..........................
..........................
..........................
..........................
..................*.......
.................*.*......
.................*.*......
..................*.......
..........................
..........................
..........................
..........................
..........................
..........................

*** Life<ConwayCell> 24x31 ***

Generation = 0, Population = 18.
*..*...........................
...............*...............
..................*............
......................*...*....
.....*.....*...................
............................*..
...............................
.........*...*........*........
...............................
...............*...............
...............................
...............................
.........*..............*......
...............................
.*.............................
...............................
...............................
...............................
...............................
...............................
......*........................
...............................
........................*......
...............................

Generation = 19, Population = 0.
...............................
...............................
...............................
...............................
...............................
...............................
...............................
...............................
...............................
...............................
...............................
...............................
...............................
...............................
...............................
...............................
...............................
...............................
...............................
...............................
...............................
...............................
...............................
...............................

*** Life<ConwayCell> 21x20 ***

Generation = 0, Population = 8.
....................
....................
....................
....................
..............*.....
....................
....................
....................
.........*..........
....................
....................
....................
....................
........*...........
....................
....................
....................
............*.......
...*..........*.....
................*...
.............*......

*** Life<ConwayCell> 25x21 ***

Generation = 0, Population = 18.
........*.....**.....
.....................
..............**.....
.........*...........
......*..............
....*................
..*...........*......
.....................
.......*.............
.....................
.............*.......
.....................
.....................
..*..................
.....................
........*...*........
.....................
.....................
.............*.......
.....................
.....................
.....................
.....................
..........*..........
....................*

*** Life<ConwayCell> 36x21 ***

Generation = 0, Population = 29.
.....................
...........**........
.....................
.....................
.....................
.....................
.........*..*........
.....................
.....................
.....................
*...*..............*.
..............*.*....
.....................
.....................
...*...*.............
......*.....*........
.....................
.....................
.....................
.....................
.........*.....*.....
.....................
.....*..*............
......*..............
.....................
.**..................
..*.*........*.......
....*................
.....................
.....................
........*......*.....
.....................
............*........
.....................
.....................
..*..........*.......

Generation = 10, Population = 0.
.....................
.....................
.....................
.....................
.....................
.....................
.....................
.....................
.....................
.....................
.....................
.....................
.....................
.....................
.....................
.....................
.....................
.....................
.....................
.....................
.....................
.....................
.....................
.....................
.....................
.....................
.....................
.....................
.....................
.....................
.....................
.....................
.....................
.....................
.....................
.....................

Generation = 20, Population = 0.
.....................
.....................
.....................
.....................
.....................
.....................
.....................
.....................
.....................
.....................
.....................
.....................
.....................
.....................
.....................
.....................
.....................
.....................
.....................
.....................
.....................
.....................
.....................
.....................
.....................
.....................
.....................
.....................
.....................
.....................
.....................
.....................
.....................
.....................
.....................
.....................

*** Life<ConwayCell> 3x25 ***

Generation = 0, Population = 7.
.......*..............*..
......***...*............
......*..................

Generation = 30, Population = 0.
.........................
.........................
.........................

*** Life<ConwayCell> 36x25 ***

Generation = 0, Population = 23.
.........................
.........................
.........................
.........................
.....................*...
.........................
.........................
..*......................
....*....*...............
.........................
.......**................
..................*..*...
.........................
.*.......................
.........................
.........................
*........................
.....*...................
.........................
.........................
..................*......
.........................
....................*....
*........*..........*....
.....*...................
.................*.......
......................*..
.........................
.........................
...*.....................
.........................
.........................
...................*.....
......................*.*
.........................
.........................

Generation = 20, Population = 0.
.........................
.........................
.........................
.........................
.........................
.........................
.........................
.........................
.........................
.........................
.........................
.........................
.........................
.........................
.........................
.........................
.........................
.........................
.........................
.........................
.........................
.........................
.........................
.........................
.........................
.........................
.........................
.........................
.........................
.........................
.........................
.........................
.........................
.........................
.........................
.........................

