25

4 7
11
1 4
2 1
1 3
0 5
3 2
0 5
3 2
0 2
0 2
3 0
3 3
12 1

6 22
7
5 13
3 17
1 9
3 16
1 8
3 10
1 5
27 5

14 16
26
9 13
11 3
5 14
5 4
5 4
6 11
4 4
5 6
12 3
7 15
10 3
7 13
12 5
0 13
9 3
12 6
8 5
7 15
4 7
9 7
11 4
7 6
9 8
5 3
4 0
9 10
11 5

11 22
3
0 10
9 12
8 11
30 3

30 3
12
13 2
13 2
9 0
29 2
9 2
18 0
24 2
19 2
26 0
26 0
3 0
5 1
17 1

12 30
22
11 1
1 16
4 17
3 21
7 27
5 27
2 1
10 0
10 29
6 2
7 2
11 10
9 19
11 13
6 5
8 17
1 21
6 14
8 0
1 4
5 20
9 14
24 3

16 15
30
6 5
14 0
1 13
0 8
15 3
13 9
12 9
0 9
10 3
7 3
2 10
15 9
15 11
13 9
2 9
0 12
13 14
5 0
2 9
0 6
1 4
10 13
9 2
12 4
9 12
3 11
13 8
9 3
14 1
8 14
11 5

18 17
6
9 10
5 5
12 0
13 8
3 9
14 5
13 4

16 8
9
5 7
11 1
4 1
14 6
4 6
14 3
6 1
14 4
0 1
17 2

13 30
6
12 27
7 6
10 27
4 24
3 23
1 22
23 3

5 5
12
2 1
2 1
1 1
0 1
3 0
2 3
3 1
3 3
0 0
2 3
1 3
0 0
13 2

6 21
30
0 10
4 12
4 7
1 9
0 12
5 6
5 4
2 3
5 0
4 9
2 6
2 4
2 1
2 15
2 14
0 4
4 12
5 19
4 10
1 5
3 0
3 19
1 10
3 16
0 13
3 12
5 6
0 20
1 13
1 2
27 5

29 13
2
6 0
5 11
26 2

12 17
26
3 6
8 1
2 11
8 0
1 4
7 2
4 11
6 9
0 0
1 3
1 15
11 8
3 6
3 15
0 15
7 1
0 1
3 5
7 14
11 7
6 11
8 11
2 3
5 13
7 15
2 0
20 3

25 10
26
14 1
21 3
22 9
3 2
9 0
23 7
6 0
24 0
12 4
18 5
17 0
21 3
6 2
17 6
5 5
21 2
5 9
24 0
15 7
3 8
19 6
5 2
9 7
17 3
3 7
16 9
13 2

13 3
11
5 1
0 0
5 1
0 1
9 0
9 0
6 0
5 0
0 1
8 1
2 0
4 4

22 22
6
9 17
6 2
12 17
4 0
9 19
1 16
14 1

13 5
3
10 4
8 3
5 4
30 4

17 20
19
10 7
5 8
8 2
0 16
10 10
1 17
5 10
14 15
16 17
5 5
2 7
12 2
16 6
2 11
4 13
0 8
0 8
7 17
13 14
15 1

28 26
16
2 3
9 18
17 12
2 19
18 7
3 14
7 10
22 24
26 6
5 15
24 15
27 20
14 1
7 14
21 0
5 8
12 4

24 17
1
17 14
5 4

9 17
16
3 5
4 0
7 13
5 15
8 5
7 1
2 8
8 12
1 9
2 13
0 9
8 10
6 12
8 1
7 5
8 14
9 1

1 19
19
0 2
0 8
0 17
0 16
0 12
0 10
0 10
0 10
0 8
0 14
0 16
0 4
0 14
0 15
0 14
0 15
0 6
0 9
0 9
22 3

11 30
24
6 5
7 21
9 29
2 23
8 11
7 13
1 21
2 1
0 29
5 2
3 12
9 7
8 23
9 14
5 11
8 20
8 3
10 25
3 10
4 28
4 21
2 6
2 23
2 16
14 3

23 23
6
17 15
20 2
4 5
7 9
13 8
4 18
13 1
