*** Life<ConwayCell> 12x18 ***

Generation = 0, Population = 64.
....**......**....
...*.*......*.*...
...*..........*...
**.*..........*.**
**.*.*..**..*.*.**
...*.*.*..*.*.*...
...*.*.*..*.*.*...
**.*.*..**..*.*.**
**.*..........*.**
...*..........*...
...*.*......*.*...
....**......**....

Generation = 1, Population = 64.
....**......**....
...*.*......*.*...
...*..........*...
**.*..........*.**
**.*..*.**.*..*.**
...*.*.*..*.*.*...
...*.*.*..*.*.*...
**.*..*.**.*..*.**
**.*..........*.**
...*..........*...
...*.*......*.*...
....**......**....

Generation = 2, Population = 72.
....**......**....
...*.*......*.*...
...*..........*...
**.**........**.**
**.*..******..*.**
...*.*.*..*.*.*...
...*.*.*..*.*.*...
**.*..******..*.**
**.**........**.**
...*..........*...
...*.*......*.*...
....**......**....

Generation = 3, Population = 80.
....**......**....
...*.*......*.*...
...*..........*...
**.**..****..**.**
**.*.********.*.**
...*.*......*.*...
...*.*......*.*...
**.*.********.*.**
**.**..****..**.**
...*..........*...
...*.*......*.*...
....**......**....

Generation = 4, Population = 72.
....**......**....
...*.*......*.*...
...*....**....*...
**.*.*......*.*.**
**.*.*......*.*.**
...*.*.****.*.*...
...*.*.****.*.*...
**.*.*......*.*.**
**.*.*......*.*.**
...*....**....*...
...*.*......*.*...
....**......**....

Generation = 5, Population = 64.
....**......**....
...*.*......*.*...
...*..........*...
**.*..........*.**
**.*.*..**..*.*.**
...*.*.*..*.*.*...
...*.*.*..*.*.*...
**.*.*..**..*.*.**
**.*..........*.**
...*..........*...
...*.*......*.*...
....**......**....

*** Life<ConwayCell> 11x14 ***

Generation = 0, Population = 36.
..............
.....****.....
..............
...********...
..............
.************.
..............
.....****.....
..............
...********...
..............

Generation = 1, Population = 38.
......**......
......**......
..............
....******....
..............
..**********..
..**......**..
......**......
..............
....******....
....******....

Generation = 2, Population = 22.
......**......
......**......
..............
.....****.....
..............
..*.******.*..
..*........*..
..............
..............
....*....*....
....*....*....

Generation = 3, Population = 22.
......**......
......**......
.....*..*.....
......**......
....*....*....
...*.****.*...
...*.****.*...
..............
..............
..............
..............

Generation = 4, Population = 18.
......**......
.....*..*.....
.....*..*.....
.....****.....
....*....*....
...*......*...
.....*..*.....
......**......
..............
..............
..............

Generation = 5, Population = 26.
......**......
.....*..*.....
....**..**....
....******....
....******....
....*....*....
......**......
......**......
..............
..............
..............

Generation = 6, Population = 18.
......**......
....**..**....
..............
...*......*...
...*......*...
....*....*....
.....****.....
......**......
..............
..............
..............

Generation = 7, Population = 24.
.....****.....
.....****.....
....*....*....
..............
...**....**...
....******....
.....*..*.....
.....*..*.....
..............
..............
..............

Generation = 8, Population = 22.
.....*..*.....
....*....*....
.....****.....
...**....**...
...**.**.**...
...*..**..*...
..............
..............
..............
..............
..............

Generation = 9, Population = 22.
..............
....*....*....
...*.****.*...
...*......*...
..*...**...*..
...********...
..............
..............
..............
..............
..............

Generation = 10, Population = 34.
..............
....******....
...*.****.*...
..****..****..
..*........*..
...***..***...
....******....
..............
..............
..............
..............

Generation = 11, Population = 24.
.....****.....
....*....*....
..*........*..
..*..*..*..*..
..*........*..
...*......*...
...*..**..*...
.....****.....
..............
..............
..............

Generation = 12, Population = 32.
.....****.....
.....****.....
...*......*...
.***......***.
..**......**..
..**......**..
....**..**....
.....*..*.....
......**......
..............
..............

Generation = 13, Population = 32.
.....*..*.....
....**..**....
...**.**.**...
.*..*....*..*.
....*....*....
..*........*..
...***..***...
....**..**....
......**......
..............
..............

Generation = 14, Population = 26.
....**..**....
...*......*...
...*..**..*...
....*....*....
...*......*...
.....*..*.....
...*.*..*.*...
...*......*...
.....****.....
..............
..............

Generation = 15, Population = 24.
....*....*....
...*.****.*...
...**....**...
...**....**...
....*....*....
..............
..............
.....*..*.....
......**......
......**......
..............

Generation = 16, Population = 28.
....******....
...*.****.*...
..*...**...*..
.....*..*.....
...**....**...
..............
..............
......**......
.....*..*.....
......**......
..............

*** Life<ConwayCell> 14x14 ***

Generation = 0, Population = 9.
..............
..............
..............
..............
..............
..............
...*..........
..*...........
...**.........
..............
..............
...**.........
..*.*.........
....*.........

Generation = 1, Population = 8.
..............
..............
..............
..............
..............
..............
..............
..*.*.........
...*..........
..............
..............
...**.........
....**........
...*..........

Generation = 2, Population = 7.
..............
..............
..............
..............
..............
..............
..............
...*..........
...*..........
..............
..............
...***........
.....*........
....*.........

Generation = 3, Population = 5.
..............
..............
..............
..............
..............
..............
..............
..............
..............
..............
....*.........
....**........
...*.*........
..............

Generation = 4, Population = 5.
..............
..............
..............
..............
..............
..............
..............
..............
..............
..............
....**........
...*.*........
.....*........
..............

Generation = 5, Population = 5.
..............
..............
..............
..............
..............
..............
..............
..............
..............
..............
....**........
.....**.......
....*.........
..............

Generation = 6, Population = 5.
..............
..............
..............
..............
..............
..............
..............
..............
..............
..............
....***.......
......*.......
.....*........
..............

Generation = 7, Population = 5.
..............
..............
..............
..............
..............
..............
..............
..............
..............
.....*........
.....**.......
....*.*.......
..............
..............

Generation = 8, Population = 5.
..............
..............
..............
..............
..............
..............
..............
..............
..............
.....**.......
....*.*.......
......*.......
..............
..............

Generation = 9, Population = 5.
..............
..............
..............
..............
..............
..............
..............
..............
..............
.....**.......
......**......
.....*........
..............
..............

Generation = 10, Population = 5.
..............
..............
..............
..............
..............
..............
..............
..............
..............
.....***......
.......*......
......*.......
..............
..............

Generation = 11, Population = 5.
..............
..............
..............
..............
..............
..............
..............
..............
......*.......
......**......
.....*.*......
..............
..............
..............

Generation = 12, Population = 5.
..............
..............
..............
..............
..............
..............
..............
..............
......**......
.....*.*......
.......*......
..............
..............
..............

Generation = 13, Population = 5.
..............
..............
..............
..............
..............
..............
..............
..............
......**......
.......**.....
......*.......
..............
..............
..............

Generation = 14, Population = 5.
..............
..............
..............
..............
..............
..............
..............
..............
......***.....
........*.....
.......*......
..............
..............
..............

Generation = 15, Population = 5.
..............
..............
..............
..............
..............
..............
..............
.......*......
.......**.....
......*.*.....
..............
..............
..............
..............

*** Life<ConwayCell> 6x4 ***

Generation = 0, Population = 10.
.**.
.*..
..**
*.**
..*.
.*..

*** Life<ConwayCell> 3x25 ***

Generation = 0, Population = 9.
...............*........*
....**.....*......*......
................*.*...*..

*** Life<ConwayCell> 3x13 ***

Generation = 0, Population = 21.
****...**..*.
*..*****...**
*..*..**.*..*

*** Life<ConwayCell> 7x2 ***

Generation = 0, Population = 11.
**
*.
**
**
**
.*
*.

*** Life<ConwayCell> 7x20 ***

Generation = 0, Population = 15.
..................**
*.............*.*...
....*...........**..
.........*.......*.*
....................
.......*............
..***...............

*** Life<ConwayCell> 17x19 ***

Generation = 0, Population = 14.
...................
...................
...................
...................
...*...............
...................
...........**......
...................
.......*...........
*.*................
......*.........*..
...................
...*.............*.
................*..
..............*....
...................
.*................*

Generation = 7, Population = 0.
...................
...................
...................
...................
...................
...................
...................
...................
...................
...................
...................
...................
...................
...................
...................
...................
...................

Generation = 14, Population = 0.
...................
...................
...................
...................
...................
...................
...................
...................
...................
...................
...................
...................
...................
...................
...................
...................
...................

Generation = 21, Population = 0.
...................
...................
...................
...................
...................
...................
...................
...................
...................
...................
...................
...................
...................
...................
...................
...................
...................

Generation = 28, Population = 0.
...................
...................
...................
...................
...................
...................
...................
...................
...................
...................
...................
...................
...................
...................
...................
...................
...................

*** Life<ConwayCell> 8x11 ***

Generation = 0, Population = 35.
.*...*..*..
......**.**
..*.*..*..*
.*...**.***
...*...**..
***....*...
*.***..*..*
...*.***..*

*** Life<ConwayCell> 12x14 ***

Generation = 0, Population = 42.
......*.*.....
..*..*..*.**..
.......*..*.*.
...*.....**.**
.***....*..*..
...**.**..*..*
...*.*........
........*.....
.......**.**..
...*.....*....
..*..**...*.*.
.........*..*.

*** Life<ConwayCell> 15x14 ***

Generation = 0, Population = 8.
..............
..............
..............
........*.....
......*.......
..........*...
..............
..*...........
............*.
....*.........
..............
..............
........*.....
..............
............*.

Generation = 7, Population = 0.
..............
..............
..............
..............
..............
..............
..............
..............
..............
..............
..............
..............
..............
..............
..............

Generation = 14, Population = 0.
..............
..............
..............
..............
..............
..............
..............
..............
..............
..............
..............
..............
..............
..............
..............

Generation = 21, Population = 0.
..............
..............
..............
..............
..............
..............
..............
..............
..............
..............
..............
..............
..............
..............
..............

Generation = 28, Population = 0.
..............
..............
..............
..............
..............
..............
..............
..............
..............
..............
..............
..............
..............
..............
..............

Generation = 35, Population = 0.
..............
..............
..............
..............
..............
..............
..............
..............
..............
..............
..............
..............
..............
..............
..............

*** Life<ConwayCell> 18x17 ***

Generation = 0, Population = 39.
**.......*......*
.....*.*.........
...*.......*....*
........*........
...*.*.*.........
.................
.................
......*......*...
............*....
......*........*.
*..........**....
....*...........*
....*.....*......
.................
..........*...**.
..*........*...*.
*................
*.*...***..*...*.

*** Life<ConwayCell> 13x2 ***

Generation = 0, Population = 17.
*.
.*
.*
**
..
**
.*
**
*.
**
**
**
..

*** Life<ConwayCell> 17x4 ***

Generation = 0, Population = 21.
**..
.***
..*.
...*
....
....
..**
.*..
**..
**..
....
....
.**.
..**
..*.
**..
....

Generation = 34, Population = 4.
**..
**..
....
....
....
....
....
....
....
....
....
....
....
....
....
....
....

*** Life<ConwayCell> 22x22 ***

Generation = 0, Population = 6.
......................
*.....................
.............*........
......................
......................
......................
......................
......................
......................
................*.....
......................
......................
......................
......................
......................
......................
......................
.............*........
......................
......................
.......*..............
.................*....

Generation = 13, Population = 0.
......................
......................
......................
......................
......................
......................
......................
......................
......................
......................
......................
......................
......................
......................
......................
......................
......................
......................
......................
......................
......................
......................

*** Life<ConwayCell> 17x9 ***

Generation = 0, Population = 36.
.....*...
*.**..*..
..****...
.*....**.
...**....
....*....
...**..*.
.....*...
.......*.
..*..*...
...*..*.*
........*
....*..*.
....**...
....*.*..
*..*.....
*......*.

*** Life<ConwayCell> 16x3 ***

Generation = 0, Population = 18.
*.*
...
*.*
...
*.*
.**
*..
**.
.*.
.*.
.*.
...
.*.
.**
*..
...

Generation = 15, Population = 4.
...
...
...
...
...
...
...
...
...
...
...
...
...
...
**.
**.

*** Life<ConwayCell> 15x30 ***

Generation = 0, Population = 41.
.....*.............*.........*
.........*..*........*.....*..
.................*..*.........
..**....*...........*.....*...
*......*..**..........*.......
..........*............*......
..*....................*.*..*.
..................*.........*.
.**..........*........*.......
.......*...............*......
...................*..........
........*.....................
.........................*....
.*..*.*.........*.............
.....................*........

*** Life<ConwayCell> 25x25 ***

Generation = 0, Population = 6.
.........................
.........................
.........................
.........................
.........................
.........................
.........................
.........................
.........................
.........................
.........***.............
.........***.............
.........................
.........................
.........................
.........................
.........................
.........................
.........................
.........................
.........................
.........................
.........................
.........................
.........................

Generation = 1, Population = 6.
.........................
.........................
.........................
.........................
.........................
.........................
.........................
.........................
.........................
..........*..............
.........*.*.............
.........*.*.............
..........*..............
.........................
.........................
.........................
.........................
.........................
.........................
.........................
.........................
.........................
.........................
.........................
.........................

Generation = 2, Population = 6.
.........................
.........................
.........................
.........................
.........................
.........................
.........................
.........................
.........................
..........*..............
.........*.*.............
.........*.*.............
..........*..............
.........................
.........................
.........................
.........................
.........................
.........................
.........................
.........................
.........................
.........................
.........................
.........................

Generation = 3, Population = 6.
.........................
.........................
.........................
.........................
.........................
.........................
.........................
.........................
.........................
..........*..............
.........*.*.............
.........*.*.............
..........*..............
.........................
.........................
.........................
.........................
.........................
.........................
.........................
.........................
.........................
.........................
.........................
.........................

Generation = 4, Population = 6.
.........................
.........................
.........................
.........................
.........................
.........................
.........................
.........................
.........................
..........*..............
.........*.*.............
.........*.*.............
..........*..............
.........................
.........................
.........................
.........................
.........................
.........................
.........................
.........................
.........................
.........................
.........................
.........................

Generation = 5, Population = 6.
.........................
.........................
.........................
.........................
.........................
.........................
.........................
.........................
.........................
..........*..............
.........*.*.............
.........*.*.............
..........*..............
.........................
.........................
.........................
.........................
.........................
.........................
.........................
.........................
.........................
.........................
.........................
.........................

Generation = 6, Population = 6.
.........................
.........................
.........................
.........................
.........................
.........................
.........................
.........................
.........................
..........*..............
.........*.*.............
.........*.*.............
..........*..............
.........................
.........................
.........................
.........................
.........................
.........................
.........................
.........................
.........................
.........................
.........................
.........................

Generation = 7, Population = 6.
.........................
.........................
.........................
.........................
.........................
.........................
.........................
.........................
.........................
..........*..............
.........*.*.............
.........*.*.............
..........*..............
.........................
.........................
.........................
.........................
.........................
.........................
.........................
.........................
.........................
.........................
.........................
.........................

Generation = 8, Population = 6.
.........................
.........................
.........................
.........................
.........................
.........................
.........................
.........................
.........................
..........*..............
.........*.*.............
.........*.*.............
..........*..............
.........................
.........................
.........................
.........................
.........................
.........................
.........................
.........................
.........................
.........................
.........................
.........................

Generation = 9, Population = 6.
.........................
.........................
.........................
.........................
.........................
.........................
.........................
.........................
.........................
..........*..............
.........*.*.............
.........*.*.............
..........*..............
.........................
.........................
.........................
.........................
.........................
.........................
.........................
.........................
.........................
.........................
.........................
.........................

Generation = 10, Population = 6.
.........................
.........................
.........................
.........................
.........................
.........................
.........................
.........................
.........................
..........*..............
.........*.*.............
.........*.*.............
..........*..............
.........................
.........................
.........................
.........................
.........................
.........................
.........................
.........................
.........................
.........................
.........................
.........................
