*** Life<Cell> 1x2 ***

Generation = 0, Population = 2.
00

Generation = 24, Population = 0.
..

*** Life<Cell> 6x2 ***

Generation = 0, Population = 9.
0-
0-
00
00
00
0-

*** Life<Cell> 1x6 ***

Generation = 0, Population = 6.
000000

*** Life<Cell> 5x1 ***

Generation = 0, Population = 3.
0
0
-
-
0

*** Life<Cell> 5x7 ***

Generation = 0, Population = 6.
-00---0
-0-----
------0
----0--
-------

*** Life<Cell> 4x1 ***

Generation = 0, Population = 3.
0
-
0
0

*** Life<Cell> 3x7 ***

Generation = 0, Population = 11.
00-0-0-
----0--
00000-0

Generation = 38, Population = 0.
.......
-......
.......

*** Life<Cell> 4x1 ***

Generation = 0, Population = 4.
0
0
0
0

*** Life<Cell> 4x5 ***

Generation = 0, Population = 11.
0-0--
0-0--
0-00-
0-000

*** Life<Cell> 1x3 ***

Generation = 0, Population = 3.
000

*** Life<Cell> 1x3 ***

Generation = 0, Population = 2.
00-

*** Life<Cell> 4x5 ***

Generation = 0, Population = 9.
-0-0-
----0
00-0-
--000

*** Life<Cell> 5x6 ***

Generation = 0, Population = 2.
------
0-----
---0--
------
------

*** Life<Cell> 2x2 ***

Generation = 0, Population = 4.
00
00

*** Life<Cell> 6x7 ***

Generation = 0, Population = 13.
00----0
0------
0--0-0-
--00--0
-------
-0--00-

*** Life<Cell> 3x6 ***

Generation = 0, Population = 8.
0----0
0---0-
000--0

*** Life<Cell> 1x5 ***

Generation = 0, Population = 5.
00000

*** Life<Cell> 3x3 ***

Generation = 0, Population = 2.
---
-0-
--0

*** Life<Cell> 3x6 ***

Generation = 0, Population = 13.
-00000
000--0
000-0-

Generation = 19, Population = 0.
......
......
-..--.

*** Life<Cell> 6x6 ***

Generation = 0, Population = 17.
0--000
-----0
00-000
-0---0
--0---
0000--

*** Life<Cell> 6x3 ***

Generation = 0, Population = 2.
---
---
--0
---
--0
---

*** Life<Cell> 4x1 ***

Generation = 0, Population = 4.
0
0
0
0

*** Life<Cell> 3x7 ***

Generation = 0, Population = 15.
0-000--
00-0-00
-000000

*** Life<Cell> 5x4 ***

Generation = 0, Population = 5.
-00-
---0
---0
--0-
----

*** Life<Cell> 7x3 ***

Generation = 0, Population = 7.
-0-
---
--0
--0
000
-0-
---

*** Life<Cell> 4x6 ***

Generation = 0, Population = 14.
0000--
-----0
000-00
-0000-

*** Life<Cell> 5x6 ***

Generation = 0, Population = 11.
---00-
------
-0--00
00----
-0-000

*** Life<Cell> 3x5 ***

Generation = 0, Population = 13.
0-0-0
00000
00000

*** Life<Cell> 3x7 ***

Generation = 0, Population = 15.
000-000
000--0-
0-000-0

*** Life<Cell> 1x7 ***

Generation = 0, Population = 7.
0000000

