*** Life<ConwayCell> 13x2 ***

Generation = 0, Population = 13.
..
..
**
.*
*.
.*
**
..
..
**
*.
*.
**

*** Life<ConwayCell> 17x8 ***

Generation = 0, Population = 3.
........
........
........
........
........
.......*
....*...
........
........
........
........
........
........
........
*.......
........
........

Generation = 5, Population = 0.
........
........
........
........
........
........
........
........
........
........
........
........
........
........
........
........
........

Generation = 10, Population = 0.
........
........
........
........
........
........
........
........
........
........
........
........
........
........
........
........
........

Generation = 15, Population = 0.
........
........
........
........
........
........
........
........
........
........
........
........
........
........
........
........
........

Generation = 20, Population = 0.
........
........
........
........
........
........
........
........
........
........
........
........
........
........
........
........
........

Generation = 25, Population = 0.
........
........
........
........
........
........
........
........
........
........
........
........
........
........
........
........
........

Generation = 30, Population = 0.
........
........
........
........
........
........
........
........
........
........
........
........
........
........
........
........
........

Generation = 35, Population = 0.
........
........
........
........
........
........
........
........
........
........
........
........
........
........
........
........
........

Generation = 40, Population = 0.
........
........
........
........
........
........
........
........
........
........
........
........
........
........
........
........
........

Generation = 45, Population = 0.
........
........
........
........
........
........
........
........
........
........
........
........
........
........
........
........
........

Generation = 50, Population = 0.
........
........
........
........
........
........
........
........
........
........
........
........
........
........
........
........
........

*** Life<ConwayCell> 20x19 ***

Generation = 0, Population = 12.
....*.*...........*
............*......
.........*.........
...................
...................
.*...*.............
...................
...................
...................
...................
...................
.*.................
...................
...................
...................
...................
...................
.*.................
..*...*............
...*...............

Generation = 5, Population = 0.
...................
...................
...................
...................
...................
...................
...................
...................
...................
...................
...................
...................
...................
...................
...................
...................
...................
...................
...................
...................

Generation = 10, Population = 0.
...................
...................
...................
...................
...................
...................
...................
...................
...................
...................
...................
...................
...................
...................
...................
...................
...................
...................
...................
...................

Generation = 15, Population = 0.
...................
...................
...................
...................
...................
...................
...................
...................
...................
...................
...................
...................
...................
...................
...................
...................
...................
...................
...................
...................

Generation = 20, Population = 0.
...................
...................
...................
...................
...................
...................
...................
...................
...................
...................
...................
...................
...................
...................
...................
...................
...................
...................
...................
...................

Generation = 25, Population = 0.
...................
...................
...................
...................
...................
...................
...................
...................
...................
...................
...................
...................
...................
...................
...................
...................
...................
...................
...................
...................

Generation = 30, Population = 0.
...................
...................
...................
...................
...................
...................
...................
...................
...................
...................
...................
...................
...................
...................
...................
...................
...................
...................
...................
...................

Generation = 35, Population = 0.
...................
...................
...................
...................
...................
...................
...................
...................
...................
...................
...................
...................
...................
...................
...................
...................
...................
...................
...................
...................

*** Life<ConwayCell> 3x11 ***

Generation = 0, Population = 13.
**.......*.
**.**..*...
*.**...**..

Generation = 3, Population = 9.
.***.......
....*..**..
...*...**..

Generation = 6, Population = 4.
...........
.......**..
.......**..

*** Life<ConwayCell> 19x8 ***

Generation = 0, Population = 18.
*.......
...*..*.
.*......
........
........
........
*.*....*
........
........
.....*..
..*...*.
***.....
........
........
....*...
.......*
......*.
*.......
..*.....

Generation = 2, Population = 6.
........
........
........
........
........
........
........
........
........
........
.**.....
.**.....
.**.....
........
........
........
........
........
........

Generation = 4, Population = 6.
........
........
........
........
........
........
........
........
........
........
.**.....
*..*....
.**.....
........
........
........
........
........
........

Generation = 6, Population = 6.
........
........
........
........
........
........
........
........
........
........
.**.....
*..*....
.**.....
........
........
........
........
........
........

Generation = 8, Population = 6.
........
........
........
........
........
........
........
........
........
........
.**.....
*..*....
.**.....
........
........
........
........
........
........

Generation = 10, Population = 6.
........
........
........
........
........
........
........
........
........
........
.**.....
*..*....
.**.....
........
........
........
........
........
........

Generation = 12, Population = 6.
........
........
........
........
........
........
........
........
........
........
.**.....
*..*....
.**.....
........
........
........
........
........
........

Generation = 14, Population = 6.
........
........
........
........
........
........
........
........
........
........
.**.....
*..*....
.**.....
........
........
........
........
........
........

Generation = 16, Population = 6.
........
........
........
........
........
........
........
........
........
........
.**.....
*..*....
.**.....
........
........
........
........
........
........

Generation = 18, Population = 6.
........
........
........
........
........
........
........
........
........
........
.**.....
*..*....
.**.....
........
........
........
........
........
........

*** Life<ConwayCell> 18x5 ***

Generation = 0, Population = 18.
...*.
.....
..*..
*...*
.*.*.
..*..
...*.
...*.
.*..*
.....
.....
.....
.....
*....
*.*..
.....
*..**
*....

Generation = 3, Population = 11.
.....
.....
..*..
..**.
...**
.....
...*.
..**.
...*.
.....
.....
.....
.....
.....
.*...
.*...
.....
.....

Generation = 6, Population = 5.
.....
.....
..**.
.*...
.....
.....
.....
...*.
...*.
.....
.....
.....
.....
.....
.....
.....
.....
.....

Generation = 9, Population = 0.
.....
.....
.....
.....
.....
.....
.....
.....
.....
.....
.....
.....
.....
.....
.....
.....
.....
.....

*** Life<ConwayCell> 1x6 ***

Generation = 0, Population = 6.
******

Generation = 4, Population = 0.
......

Generation = 8, Population = 0.
......

*** Life<ConwayCell> 4x19 ***

Generation = 0, Population = 21.
*.*..***......****.
.**.....*.*.*......
.......**.........*
.*...*...*....*....

Generation = 2, Population = 17.
.**....**......*.*.
...*..*..*.....*.*.
.**....*........*..
.......**..........

Generation = 4, Population = 12.
.......*...........
..**..*.*.......*..
......*.*.......*..
......***..........

Generation = 6, Population = 13.
.......*...........
.....**.**.........
.....**.**.........
.....**.**.........

Generation = 8, Population = 14.
......***..........
.....*****.........
....*.*.*.*........
.....*...*.........

Generation = 10, Population = 0.
...................
...................
...................
...................

Generation = 12, Population = 0.
...................
...................
...................
...................

Generation = 14, Population = 0.
...................
...................
...................
...................

Generation = 16, Population = 0.
...................
...................
...................
...................

Generation = 18, Population = 0.
...................
...................
...................
...................

Generation = 20, Population = 0.
...................
...................
...................
...................

Generation = 22, Population = 0.
...................
...................
...................
...................

Generation = 24, Population = 0.
...................
...................
...................
...................

Generation = 26, Population = 0.
...................
...................
...................
...................

Generation = 28, Population = 0.
...................
...................
...................
...................

*** Life<ConwayCell> 7x14 ***

Generation = 0, Population = 8.
*.*.....*.....
*.............
..........*...
..........*...
.....*........
...........*..
..............

Generation = 3, Population = 0.
..............
..............
..............
..............
..............
..............
..............

Generation = 6, Population = 0.
..............
..............
..............
..............
..............
..............
..............

Generation = 9, Population = 0.
..............
..............
..............
..............
..............
..............
..............

Generation = 12, Population = 0.
..............
..............
..............
..............
..............
..............
..............

Generation = 15, Population = 0.
..............
..............
..............
..............
..............
..............
..............

Generation = 18, Population = 0.
..............
..............
..............
..............
..............
..............
..............

Generation = 21, Population = 0.
..............
..............
..............
..............
..............
..............
..............

Generation = 24, Population = 0.
..............
..............
..............
..............
..............
..............
..............

Generation = 27, Population = 0.
..............
..............
..............
..............
..............
..............
..............

Generation = 30, Population = 0.
..............
..............
..............
..............
..............
..............
..............

Generation = 33, Population = 0.
..............
..............
..............
..............
..............
..............
..............

Generation = 36, Population = 0.
..............
..............
..............
..............
..............
..............
..............

Generation = 39, Population = 0.
..............
..............
..............
..............
..............
..............
..............

*** Life<ConwayCell> 11x9 ***

Generation = 0, Population = 22.
...*.**..
*......*.
*......*.
.......*.
...*.*..*
...*..*.*
.........
.......*.
....*..*.
*........
.**..*..*

Generation = 3, Population = 8.
.........
.........
.........
.........
.....**.*
.....**.*
......**.
.........
.........
.........
.........

Generation = 6, Population = 4.
.........
.........
.........
.........
.........
.........
......**.
......**.
.........
.........
.........

Generation = 9, Population = 4.
.........
.........
.........
.........
.........
.........
......**.
......**.
.........
.........
.........

Generation = 12, Population = 4.
.........
.........
.........
.........
.........
.........
......**.
......**.
.........
.........
.........

*** Life<ConwayCell> 11x9 ***

Generation = 0, Population = 13.
*.*......
...*...*.
.........
*........
.........
.....*.*.
.........
...*.....
*...**...
.......*.
.......*.

Generation = 5, Population = 0.
.........
.........
.........
.........
.........
.........
.........
.........
.........
.........
.........

Generation = 10, Population = 0.
.........
.........
.........
.........
.........
.........
.........
.........
.........
.........
.........

Generation = 15, Population = 0.
.........
.........
.........
.........
.........
.........
.........
.........
.........
.........
.........

Generation = 20, Population = 0.
.........
.........
.........
.........
.........
.........
.........
.........
.........
.........
.........

*** Life<ConwayCell> 7x20 ***

Generation = 0, Population = 15.
.....*.*......*...*.
......*...*.........
....................
..........*........*
......*..*......*...
.....*......*...*...
...........*........

Generation = 5, Population = 0.
....................
....................
....................
....................
....................
....................
....................

Generation = 10, Population = 0.
....................
....................
....................
....................
....................
....................
....................

Generation = 15, Population = 0.
....................
....................
....................
....................
....................
....................
....................

Generation = 20, Population = 0.
....................
....................
....................
....................
....................
....................
....................

Generation = 25, Population = 0.
....................
....................
....................
....................
....................
....................
....................

Generation = 30, Population = 0.
....................
....................
....................
....................
....................
....................
....................

Generation = 35, Population = 0.
....................
....................
....................
....................
....................
....................
....................

*** Life<ConwayCell> 8x19 ***

Generation = 0, Population = 22.
...........*.......
................*..
..**..............*
..*......*.**...*..
..*........**....**
.....*.............
.......*........*.*
....*.......**.....

Generation = 5, Population = 16.
...................
..*................
.*.*.......*.......
.*.*......*.*....**
..*.......*.*....**
...........*.......
...................
...................

Generation = 10, Population = 16.
...................
..*................
.*.*.......*.......
.*.*......*.*....**
..*.......*.*....**
...........*.......
...................
...................

Generation = 15, Population = 16.
...................
..*................
.*.*.......*.......
.*.*......*.*....**
..*.......*.*....**
...........*.......
...................
...................

Generation = 20, Population = 16.
...................
..*................
.*.*.......*.......
.*.*......*.*....**
..*.......*.*....**
...........*.......
...................
...................

Generation = 25, Population = 16.
...................
..*................
.*.*.......*.......
.*.*......*.*....**
..*.......*.*....**
...........*.......
...................
...................

Generation = 30, Population = 16.
...................
..*................
.*.*.......*.......
.*.*......*.*....**
..*.......*.*....**
...........*.......
...................
...................

Generation = 35, Population = 16.
...................
..*................
.*.*.......*.......
.*.*......*.*....**
..*.......*.*....**
...........*.......
...................
...................

Generation = 40, Population = 16.
...................
..*................
.*.*.......*.......
.*.*......*.*....**
..*.......*.*....**
...........*.......
...................
...................

Generation = 45, Population = 16.
...................
..*................
.*.*.......*.......
.*.*......*.*....**
..*.......*.*....**
...........*.......
...................
...................

Generation = 50, Population = 16.
...................
..*................
.*.*.......*.......
.*.*......*.*....**
..*.......*.*....**
...........*.......
...................
...................

*** Life<ConwayCell> 5x10 ***

Generation = 0, Population = 7.
..*.......
**........
...*....*.
*.*.......
..........

Generation = 5, Population = 4.
..**......
.*.*......
..........
..........
..........

Generation = 10, Population = 4.
..**......
..**......
..........
..........
..........

Generation = 15, Population = 4.
..**......
..**......
..........
..........
..........

Generation = 20, Population = 4.
..**......
..**......
..........
..........
..........

Generation = 25, Population = 4.
..**......
..**......
..........
..........
..........

*** Life<ConwayCell> 6x6 ***

Generation = 0, Population = 18.
**...*
..*...
**.*.*
*.**.*
..*..*
..****

Generation = 2, Population = 11.
......
.***..
.***..
......
..*..*
...***

Generation = 4, Population = 12.
..*...
.*.*..
**.**.
...*..
...*.*
...*.*

Generation = 6, Population = 10.
.***..
*...*.
**....
.*....
..**..
......

Generation = 8, Population = 9.
.***..
*..*..
..*...
*.*...
.*....
......

Generation = 10, Population = 9.
..**..
.*..*.
..**..
.***..
......
......

Generation = 12, Population = 10.
..**..
..*.*.
..***.
..**..
..*...
......

Generation = 14, Population = 14.
..**..
.*..*.
******
.*..*.
..**..
......

Generation = 16, Population = 8.
......
.*..*.
**..**
.*..*.
......
......

Generation = 18, Population = 4.
......
*....*
......
*....*
......
......

Generation = 20, Population = 0.
......
......
......
......
......
......

Generation = 22, Population = 0.
......
......
......
......
......
......

Generation = 24, Population = 0.
......
......
......
......
......
......

Generation = 26, Population = 0.
......
......
......
......
......
......

Generation = 28, Population = 0.
......
......
......
......
......
......

Generation = 30, Population = 0.
......
......
......
......
......
......

*** Life<ConwayCell> 1x20 ***

Generation = 0, Population = 13.
*.*.**.******.*..*.*

Generation = 2, Population = 2.
.........**.........

Generation = 4, Population = 0.
....................

Generation = 6, Population = 0.
....................

Generation = 8, Population = 0.
....................

Generation = 10, Population = 0.
....................

Generation = 12, Population = 0.
....................

Generation = 14, Population = 0.
....................

Generation = 16, Population = 0.
....................

Generation = 18, Population = 0.
....................

Generation = 20, Population = 0.
....................

Generation = 22, Population = 0.
....................

Generation = 24, Population = 0.
....................

Generation = 26, Population = 0.
....................

Generation = 28, Population = 0.
....................

Generation = 30, Population = 0.
....................

Generation = 32, Population = 0.
....................

Generation = 34, Population = 0.
....................

Generation = 36, Population = 0.
....................

Generation = 38, Population = 0.
....................

Generation = 40, Population = 0.
....................

Generation = 42, Population = 0.
....................

Generation = 44, Population = 0.
....................

Generation = 46, Population = 0.
....................

Generation = 48, Population = 0.
....................

Generation = 50, Population = 0.
....................

Generation = 52, Population = 0.
....................

Generation = 54, Population = 0.
....................

Generation = 56, Population = 0.
....................

Generation = 58, Population = 0.
....................

Generation = 60, Population = 0.
....................

*** Life<ConwayCell> 11x10 ***

Generation = 0, Population = 8.
..........
..........
..........
.....*...*
..........
.......*..
.........*
..*.*.....
...*......
..........
*.........

Generation = 4, Population = 0.
..........
..........
..........
..........
..........
..........
..........
..........
..........
..........
..........

Generation = 8, Population = 0.
..........
..........
..........
..........
..........
..........
..........
..........
..........
..........
..........

Generation = 12, Population = 0.
..........
..........
..........
..........
..........
..........
..........
..........
..........
..........
..........

Generation = 16, Population = 0.
..........
..........
..........
..........
..........
..........
..........
..........
..........
..........
..........

Generation = 20, Population = 0.
..........
..........
..........
..........
..........
..........
..........
..........
..........
..........
..........

Generation = 24, Population = 0.
..........
..........
..........
..........
..........
..........
..........
..........
..........
..........
..........

Generation = 28, Population = 0.
..........
..........
..........
..........
..........
..........
..........
..........
..........
..........
..........

Generation = 32, Population = 0.
..........
..........
..........
..........
..........
..........
..........
..........
..........
..........
..........

Generation = 36, Population = 0.
..........
..........
..........
..........
..........
..........
..........
..........
..........
..........
..........

Generation = 40, Population = 0.
..........
..........
..........
..........
..........
..........
..........
..........
..........
..........
..........

Generation = 44, Population = 0.
..........
..........
..........
..........
..........
..........
..........
..........
..........
..........
..........

Generation = 48, Population = 0.
..........
..........
..........
..........
..........
..........
..........
..........
..........
..........
..........

*** Life<ConwayCell> 6x4 ***

Generation = 0, Population = 14.
***.
*.**
****
*...
.*.*
...*

Generation = 4, Population = 4.
....
....
..*.
....
.*.*
..*.

Generation = 8, Population = 3.
....
....
....
....
.***
....

Generation = 12, Population = 3.
....
....
....
....
.***
....

Generation = 16, Population = 3.
....
....
....
....
.***
....

Generation = 20, Population = 3.
....
....
....
....
.***
....

Generation = 24, Population = 3.
....
....
....
....
.***
....

Generation = 28, Population = 3.
....
....
....
....
.***
....

Generation = 32, Population = 3.
....
....
....
....
.***
....

Generation = 36, Population = 3.
....
....
....
....
.***
....

*** Life<ConwayCell> 10x11 ***

Generation = 0, Population = 21.
....**....*
..*.......*
..*........
....***...*
...*....*..
...........
...*.......
..*.....*..
........*..
.*.**..**..

Generation = 4, Population = 15.
...........
..***......
..*..**....
..**.**....
....**.....
...........
...........
........*..
.......*.*.
...........

Generation = 8, Population = 15.
...........
.**..**....
***..**....
.**...**...
.....**....
...........
...........
...........
...........
...........

Generation = 12, Population = 11.
...........
.**........
*..*.......
.**...**...
........*..
......**...
...........
...........
...........
...........

Generation = 16, Population = 6.
...........
.**........
*..*.......
.**........
...........
...........
...........
...........
...........
...........

Generation = 20, Population = 6.
...........
.**........
*..*.......
.**........
...........
...........
...........
...........
...........
...........

Generation = 24, Population = 6.
...........
.**........
*..*.......
.**........
...........
...........
...........
...........
...........
...........

Generation = 28, Population = 6.
...........
.**........
*..*.......
.**........
...........
...........
...........
...........
...........
...........

Generation = 32, Population = 6.
...........
.**........
*..*.......
.**........
...........
...........
...........
...........
...........
...........

Generation = 36, Population = 6.
...........
.**........
*..*.......
.**........
...........
...........
...........
...........
...........
...........

Generation = 40, Population = 6.
...........
.**........
*..*.......
.**........
...........
...........
...........
...........
...........
...........

Generation = 44, Population = 6.
...........
.**........
*..*.......
.**........
...........
...........
...........
...........
...........
...........

Generation = 48, Population = 6.
...........
.**........
*..*.......
.**........
...........
...........
...........
...........
...........
...........

*** Life<ConwayCell> 3x6 ***

Generation = 0, Population = 13.
.*.*.*
.*.***
******

Generation = 4, Population = 0.
......
......
......

Generation = 8, Population = 0.
......
......
......

Generation = 12, Population = 0.
......
......
......

Generation = 16, Population = 0.
......
......
......

Generation = 20, Population = 0.
......
......
......

Generation = 24, Population = 0.
......
......
......

Generation = 28, Population = 0.
......
......
......

Generation = 32, Population = 0.
......
......
......

Generation = 36, Population = 0.
......
......
......

Generation = 40, Population = 0.
......
......
......

Generation = 44, Population = 0.
......
......
......

Generation = 48, Population = 0.
......
......
......

*** Life<ConwayCell> 7x15 ***

Generation = 0, Population = 27.
..*.*..*..*.*..
***.........*..
....**..*.*.*..
.*.**........*.
.*.**..........
...*.*....*...*
........*..*...

Generation = 3, Population = 15.
.*.**..........
*....*.....*.*.
.*.*..*....*.*.
...*.*......*..
...............
...............
...............

Generation = 6, Population = 12.
..****.........
.***..*........
.*.............
....***........
...............
...............
...............

Generation = 9, Population = 14.
....**.........
.***..*........
.****.**.......
.....**........
...............
...............
...............

Generation = 12, Population = 18.
..******.......
.*....**.......
.*..*...*......
..*....*.......
..*....*.......
....**.........
...............

Generation = 15, Population = 20.
..***..........
.*...*.***.....
**.*..*.**.....
...**...**.....
..*....*.......
...............
...............

Generation = 18, Population = 25.
.******..*.....
.*...*....*....
***.*.**..*....
.*.......**....
.****..........
...*...........
...............

Generation = 21, Population = 26.
...****...*....
.......*****...
.....**.*...*..
.***..**.***...
..........*....
..**...........
...*...........

Generation = 24, Population = 35.
.....****.**...
....*...*.*.*..
....**..**..**.
.**.**..*..**..
**.***..*..*...
.*.**..........
..**...........

Generation = 27, Population = 37.
.....**..**.**.
.....*..*.....*
**...**...*...*
***..**.*.*..**
.....***.****..
*...**.....*...
*...*..........

Generation = 30, Population = 44.
....***........
...*..*...*.***
...**********.*
....*.**.****.*
....*.*...**..*
...*.*****..**.
....**......*..

Generation = 33, Population = 29.
....**.........
.....*.......**
...*..........*
...**........**
..*...*****.*.*
...*.....*.*..*
....*..**.**.*.

Generation = 36, Population = 30.
....**.........
...*.*.........
..***.......***
.**.*.**..**.*.
..*.***...***..
...***...*.....
..........*....

Generation = 39, Population = 28.
....*.*........
...*...*....***
***.*...*..**.*
*....*....*..*.
*..*..*...*....
.***....**.....
...............

Generation = 42, Population = 41.
...**......***.
.*.***.....**.*
**...**...*...*
**...**..**.**.
**..**...****..
**.**..........
.***...........

Generation = 45, Population = 26.
.*..*.....*....
*...*....*.****
.***....*.....*
............*.*
.............*.
...**.....***..
...**......*...

Generation = 48, Population = 20.
..*............
.*.*......*..**
*...*.........*
.*..*......*..*
...........*...
..*.......*..*.
...**......*...

Generation = 51, Population = 26.
.***...........
*.*.*........**
*.*.*.......***
.***.......***.
..*.......*.*..
..........*.*..
...........*...

Generation = 54, Population = 9.
.***...........
..*............
...............
.***...........
...............
..........**...
...............

Generation = 57, Population = 11.
...............
**.**..........
**.**..........
.*.*...........
..*............
...............
...............

*** Life<ConwayCell> 4x7 ***

Generation = 0, Population = 5.
..*....
*.....*
*......
*......

Generation = 2, Population = 4.
.......
**.....
**.....
.......

Generation = 4, Population = 4.
.......
**.....
**.....
.......

Generation = 6, Population = 4.
.......
**.....
**.....
.......

*** Life<ConwayCell> 6x15 ***

Generation = 0, Population = 20.
.........*..*..
...*...*...*...
.*...*......**.
.....*.*....**.
.*....*...*.*..
.*.*...*.......

Generation = 4, Population = 11.
...............
...............
...............
.....**....***.
.....**....***.
............*..

*** Life<ConwayCell> 17x14 ***

Generation = 0, Population = 12.
..............
..............
..............
.*............
......*.......
..............
....*.........
..............
..............
.........*....
.*......*.....
..*...........
....*.........
..............
............*.
.*..........*.
..*...........

Generation = 5, Population = 0.
..............
..............
..............
..............
..............
..............
..............
..............
..............
..............
..............
..............
..............
..............
..............
..............
..............

Generation = 10, Population = 0.
..............
..............
..............
..............
..............
..............
..............
..............
..............
..............
..............
..............
..............
..............
..............
..............
..............

*** Life<ConwayCell> 18x3 ***

Generation = 0, Population = 11.
...
*..
*.*
.*.
...
.*.
...
...
..*
...
...
...
..*
...
**.
...
*..
*..

Generation = 2, Population = 4.
...
...
**.
...
...
...
...
...
...
...
...
...
...
...
**.
...
...
...

Generation = 4, Population = 0.
...
...
...
...
...
...
...
...
...
...
...
...
...
...
...
...
...
...

Generation = 6, Population = 0.
...
...
...
...
...
...
...
...
...
...
...
...
...
...
...
...
...
...

Generation = 8, Population = 0.
...
...
...
...
...
...
...
...
...
...
...
...
...
...
...
...
...
...

Generation = 10, Population = 0.
...
...
...
...
...
...
...
...
...
...
...
...
...
...
...
...
...
...

Generation = 12, Population = 0.
...
...
...
...
...
...
...
...
...
...
...
...
...
...
...
...
...
...

Generation = 14, Population = 0.
...
...
...
...
...
...
...
...
...
...
...
...
...
...
...
...
...
...

Generation = 16, Population = 0.
...
...
...
...
...
...
...
...
...
...
...
...
...
...
...
...
...
...

Generation = 18, Population = 0.
...
...
...
...
...
...
...
...
...
...
...
...
...
...
...
...
...
...

Generation = 20, Population = 0.
...
...
...
...
...
...
...
...
...
...
...
...
...
...
...
...
...
...

Generation = 22, Population = 0.
...
...
...
...
...
...
...
...
...
...
...
...
...
...
...
...
...
...

Generation = 24, Population = 0.
...
...
...
...
...
...
...
...
...
...
...
...
...
...
...
...
...
...

Generation = 26, Population = 0.
...
...
...
...
...
...
...
...
...
...
...
...
...
...
...
...
...
...

Generation = 28, Population = 0.
...
...
...
...
...
...
...
...
...
...
...
...
...
...
...
...
...
...

Generation = 30, Population = 0.
...
...
...
...
...
...
...
...
...
...
...
...
...
...
...
...
...
...

Generation = 32, Population = 0.
...
...
...
...
...
...
...
...
...
...
...
...
...
...
...
...
...
...

Generation = 34, Population = 0.
...
...
...
...
...
...
...
...
...
...
...
...
...
...
...
...
...
...

Generation = 36, Population = 0.
...
...
...
...
...
...
...
...
...
...
...
...
...
...
...
...
...
...

Generation = 38, Population = 0.
...
...
...
...
...
...
...
...
...
...
...
...
...
...
...
...
...
...

Generation = 40, Population = 0.
...
...
...
...
...
...
...
...
...
...
...
...
...
...
...
...
...
...

Generation = 42, Population = 0.
...
...
...
...
...
...
...
...
...
...
...
...
...
...
...
...
...
...

Generation = 44, Population = 0.
...
...
...
...
...
...
...
...
...
...
...
...
...
...
...
...
...
...

*** Life<ConwayCell> 4x20 ***

Generation = 0, Population = 7.
.....*....*.........
........*....*......
..........*...*.....
...............*....

Generation = 5, Population = 0.
....................
....................
....................
....................

Generation = 10, Population = 0.
....................
....................
....................
....................

Generation = 15, Population = 0.
....................
....................
....................
....................

Generation = 20, Population = 0.
....................
....................
....................
....................

Generation = 25, Population = 0.
....................
....................
....................
....................

Generation = 30, Population = 0.
....................
....................
....................
....................

Generation = 35, Population = 0.
....................
....................
....................
....................

Generation = 40, Population = 0.
....................
....................
....................
....................

Generation = 45, Population = 0.
....................
....................
....................
....................

Generation = 50, Population = 0.
....................
....................
....................
....................

*** Life<ConwayCell> 20x8 ***

Generation = 0, Population = 16.
...*....
*......*
........
.......*
........
.....*..
..*.....
........
........
.*......
......*.
........
.*......
........
........
*..**...
.*......
....*...
.*....*.
........

Generation = 2, Population = 0.
........
........
........
........
........
........
........
........
........
........
........
........
........
........
........
........
........
........
........
........

Generation = 4, Population = 0.
........
........
........
........
........
........
........
........
........
........
........
........
........
........
........
........
........
........
........
........

Generation = 6, Population = 0.
........
........
........
........
........
........
........
........
........
........
........
........
........
........
........
........
........
........
........
........

Generation = 8, Population = 0.
........
........
........
........
........
........
........
........
........
........
........
........
........
........
........
........
........
........
........
........

Generation = 10, Population = 0.
........
........
........
........
........
........
........
........
........
........
........
........
........
........
........
........
........
........
........
........

Generation = 12, Population = 0.
........
........
........
........
........
........
........
........
........
........
........
........
........
........
........
........
........
........
........
........

Generation = 14, Population = 0.
........
........
........
........
........
........
........
........
........
........
........
........
........
........
........
........
........
........
........
........

Generation = 16, Population = 0.
........
........
........
........
........
........
........
........
........
........
........
........
........
........
........
........
........
........
........
........

Generation = 18, Population = 0.
........
........
........
........
........
........
........
........
........
........
........
........
........
........
........
........
........
........
........
........

Generation = 20, Population = 0.
........
........
........
........
........
........
........
........
........
........
........
........
........
........
........
........
........
........
........
........

Generation = 22, Population = 0.
........
........
........
........
........
........
........
........
........
........
........
........
........
........
........
........
........
........
........
........

Generation = 24, Population = 0.
........
........
........
........
........
........
........
........
........
........
........
........
........
........
........
........
........
........
........
........

Generation = 26, Population = 0.
........
........
........
........
........
........
........
........
........
........
........
........
........
........
........
........
........
........
........
........

Generation = 28, Population = 0.
........
........
........
........
........
........
........
........
........
........
........
........
........
........
........
........
........
........
........
........

Generation = 30, Population = 0.
........
........
........
........
........
........
........
........
........
........
........
........
........
........
........
........
........
........
........
........

Generation = 32, Population = 0.
........
........
........
........
........
........
........
........
........
........
........
........
........
........
........
........
........
........
........
........

Generation = 34, Population = 0.
........
........
........
........
........
........
........
........
........
........
........
........
........
........
........
........
........
........
........
........

Generation = 36, Population = 0.
........
........
........
........
........
........
........
........
........
........
........
........
........
........
........
........
........
........
........
........

Generation = 38, Population = 0.
........
........
........
........
........
........
........
........
........
........
........
........
........
........
........
........
........
........
........
........
