24

30 8
21
2 1
20 7
19 3
2 5
28 7
16 7
8 1
3 2
2 4
17 1
24 7
9 6
10 3
3 4
0 5
22 0
14 2
3 4
28 3
18 6
14 1
21 5

10 9
21
8 1
8 7
8 1
8 1
2 5
0 1
2 6
4 8
6 8
5 7
0 3
0 7
7 3
2 1
8 5
0 0
4 0
5 5
6 0
0 8
7 3
38 8

24 7
15
18 1
21 6
12 2
20 4
7 6
15 4
4 2
11 0
2 3
17 6
13 2
9 5
8 4
18 4
8 1
5 6

10 9
12
7 5
1 2
7 6
5 5
4 7
4 3
4 5
4 0
7 8
3 7
3 6
7 8
16 9

18 20
15
4 9
4 16
8 13
2 0
14 19
17 4
6 7
5 4
6 1
15 17
1 4
6 9
9 19
5 6
9 12
77 1

11 5
30
5 0
7 2
0 2
7 2
7 0
9 3
6 4
8 4
4 4
9 1
9 1
6 2
3 2
7 2
7 2
9 0
8 3
1 3
0 3
9 0
9 4
8 0
5 4
4 2
9 0
8 3
10 3
6 4
7 4
2 0
65 9

17 10
14
1 9
12 2
13 6
14 8
11 2
0 0
16 4
8 3
4 4
16 2
0 2
14 6
1 3
10 1
76 4

34 13
3
17 7
19 9
0 12
17 10

6 20
2
3 16
3 15
21 6

12 15
6
0 14
3 12
3 8
6 6
7 7
2 1
54 10

14 8
21
2 3
11 4
2 1
8 7
10 4
8 5
1 2
13 0
13 3
4 2
1 5
9 0
5 3
5 2
4 1
4 1
10 4
1 0
10 1
6 6
5 6
77 5

25 12
10
14 1
6 11
17 4
20 6
7 7
10 4
1 2
17 6
3 4
19 3
75 8

41 9
11
31 5
39 6
23 7
39 1
1 0
31 5
17 1
29 6
35 8
24 5
29 5
78 6

8 17
21
1 8
2 9
0 8
5 15
2 2
7 12
1 5
7 1
0 3
1 11
0 10
2 11
7 1
0 3
3 7
4 0
4 16
2 1
0 2
1 5
3 1
96 4

28 9
24
14 5
24 1
8 5
26 7
14 8
24 4
9 1
0 0
22 2
17 5
26 8
27 1
15 0
3 0
7 5
24 8
1 2
0 1
5 0
13 4
24 6
4 1
18 7
9 3
87 10

24 8
9
2 6
20 7
2 2
4 1
0 5
14 6
7 0
1 3
14 5
88 6

26 15
4
20 0
9 1
13 12
13 7
99 7

12 7
9
10 2
11 2
2 5
5 3
10 4
1 2
11 6
9 1
0 2
54 1

9 5
10
3 1
4 3
2 2
8 0
4 1
8 1
0 4
8 2
2 4
6 1
69 5

30 19
29
3 17
5 16
4 10
10 4
0 11
25 9
15 9
5 12
19 18
20 17
14 9
13 5
22 2
4 15
20 6
26 18
29 2
1 4
21 4
17 7
9 16
20 0
2 13
0 17
10 1
10 9
7 6
8 18
14 18
12 9

27 8
3
24 7
13 3
13 0
37 4

36 15
12
34 3
23 1
4 4
13 4
32 7
26 9
33 12
1 2
35 9
22 7
30 8
2 4
14 4

26 10
16
5 3
9 1
25 5
24 0
6 9
7 2
0 6
24 7
11 5
10 3
3 3
18 8
22 7
13 8
10 6
22 1
28 3

48 7
10
3 0
23 1
0 0
25 2
12 2
33 6
33 4
1 1
12 4
34 2
8 9
