23

23 7
12
9 4
11 2
8 2
21 0
16 3
10 3
12 2
13 3
22 2
21 2
13 1
5 0
42 1

8 61
22
5 35
3 34
3 15
4 13
6 57
6 12
4 17
3 33
6 34
0 1
6 57
4 7
0 47
1 13
3 35
6 56
4 7
3 31
6 42
3 59
3 22
7 41
22 10

24 31
10
2 8
9 17
0 18
11 9
3 23
9 2
8 24
14 20
23 8
6 20
22 4

2 60
5
1 59
0 58
1 12
1 6
1 52
36 10

5 34
11
4 23
0 17
0 22
0 10
2 19
2 7
4 12
4 17
4 22
0 4
1 32
38 4

65 60
25
27 29
9 38
49 14
49 56
47 59
11 57
59 33
44 31
13 57
5 35
64 37
52 24
29 33
5 45
26 2
49 19
31 22
25 59
64 2
30 24
44 11
31 38
60 23
45 13
62 8
32 7

22 30
23
16 1
15 4
20 20
5 29
14 10
9 18
11 9
0 11
4 10
9 18
2 18
5 3
20 23
21 12
0 8
18 23
3 15
7 20
14 15
1 6
2 25
9 28
21 0
48 5

56 23
30
22 10
4 2
16 6
4 0
41 17
29 5
22 9
40 9
35 21
2 3
8 6
40 6
44 19
6 4
12 0
44 11
24 0
20 7
51 11
55 0
33 1
11 11
49 12
7 7
40 5
26 3
4 17
21 11
23 13
15 22
14 5

1 27
13
0 26
0 16
0 6
0 5
0 1
0 2
0 5
0 10
0 26
0 22
0 19
0 5
0 15
39 2

12 5
20
10 0
6 4
10 2
3 1
1 0
7 2
6 0
11 1
7 4
0 0
6 1
10 3
5 3
0 2
8 4
9 2
6 4
4 1
5 3
11 0
44 1

32 3
25
22 2
15 2
25 2
30 0
10 1
17 2
0 2
26 0
22 1
8 0
2 1
30 0
0 0
28 2
28 2
22 1
4 2
22 0
23 0
1 1
18 1
17 1
10 1
20 2
28 0
13 9

43 47
5
0 44
10 31
36 38
3 10
41 11
10 8

2 28
7
1 2
1 15
1 13
0 4
1 5
0 1
0 13
17 9

2 1
6
1 0
1 0
0 0
1 0
0 0
1 0
38 2

23 46
14
21 13
22 4
6 9
22 19
11 39
13 7
4 29
1 41
13 41
2 30
15 18
9 15
1 4
10 31
11 9

10 12
29
1 5
2 7
6 1
8 9
9 2
3 9
4 9
9 0
4 0
3 0
0 4
0 11
1 9
6 6
9 7
1 10
2 8
9 5
4 3
0 6
4 0
3 3
8 2
0 2
0 8
9 5
2 5
6 6
7 11
19 5

16 29
15
8 12
7 5
0 14
9 9
3 3
0 2
5 28
13 6
1 16
15 8
3 24
11 19
1 23
3 19
7 27
18 7

10 28
22
0 19
0 6
9 19
8 0
8 2
7 7
4 8
5 14
5 5
3 2
7 16
8 4
1 1
8 6
7 20
1 4
9 14
2 4
3 15
9 8
4 4
4 7
42 6

62 48
29
7 36
27 40
61 24
52 38
59 18
52 35
45 2
2 22
50 16
9 19
10 3
37 42
38 6
26 25
11 35
55 13
43 42
6 8
57 42
20 42
55 32
44 42
35 35
10 42
9 31
45 23
18 43
32 29
49 27
7 4

37 14
7
33 5
7 7
21 2
17 4
1 8
12 3
7 1
15 6

32 1
26
14 0
19 0
19 0
18 0
16 0
26 0
12 0
23 0
3 0
6 0
27 0
12 0
12 0
8 0
28 0
18 0
27 0
16 0
18 0
16 0
30 0
29 0
1 0
2 0
26 0
2 0
10 4

16 43
3
3 9
15 15
6 42
25 9

40 16
1
35 12
24 8
